<svg xmlns="http://www.w3.org/2000/svg" width="15.569" height="26.747" viewBox="0 0 15.569 26.747">
    <path id="Path_64" data-name="Path 64" d="M1121.228,503.149a2.2,2.2,0,0,0,0,3.106l11.179,11.177a2.193,2.193,0,0,0,3.1,0h0a2.193,2.193,0,0,0,0-3.1l-11.177-11.179a2.2,2.2,0,0,0-3.106,0Z" transform="translate(-1120.584 -491.328)" fill="#fff"/>
    <path id="Path_65" data-name="Path 65" d="M1121.228,511.411a2.2,2.2,0,0,0,3.106,0l11.177-11.179a2.194,2.194,0,0,0,0-3.1h0a2.193,2.193,0,0,0-3.1,0L1121.228,508.3a2.2,2.2,0,0,0,0,3.106Z" transform="translate(-1120.584 -496.484)" fill="#fff"/>
</svg>
