<svg xmlns="http://www.w3.org/2000/svg" width="16.804" height="19.411" viewBox="0 0 16.804 19.411">
    <path id="Path_42" data-name="Path 42" d="M790.326,505.406h-3.7v-1.8h3.324v-1.116h-3.324v-1.468H790.2V499.9h-4.91v6.621h5.036Z" transform="translate(-785.289 -499.894)" fill="#f5f8f7"/>
    <path id="Path_43" data-name="Path 43" d="M793.249,505.416V499.9H791.9v6.648h4.719v-1.129Z" transform="translate(-779.81 -499.897)" fill="#f5f8f7"/>
    <path id="Path_44" data-name="Path 44" d="M789.142,510.489a7.256,7.256,0,0,1-.057,1.1.9.9,0,0,1-.339.558,1.319,1.319,0,0,1-.834.227,1.375,1.375,0,0,1-.86-.242,1.041,1.041,0,0,1-.4-.635,7.14,7.14,0,0,1-.049-1.079V506.92h-1.3v3.441a7.764,7.764,0,0,0,.128,1.637,1.765,1.765,0,0,0,.364.715,1.992,1.992,0,0,0,.754.556,3.594,3.594,0,0,0,1.4.212,3.274,3.274,0,0,0,1.24-.2,1.967,1.967,0,0,0,.757-.525,1.823,1.823,0,0,0,.388-.811,8.637,8.637,0,0,0,.106-1.641v-3.39h-1.3Z" transform="translate(-785.276 -494.072)" fill="#f5f8f7"/>
    <path  id="Path_45" data-name="Path 45" d="M794.255,513.557c-.7-1.05-1.407-2.02-2.023-3.048a2.514,2.514,0,0,1,.545-3.112,2.219,2.219,0,0,1,3,.038,2.531,2.531,0,0,1,.485,3.1C795.649,511.553,794.954,512.516,794.255,513.557Zm0-3.039a1.209,1.209,0,1,0-1.132-1.218A1.185,1.185,0,0,0,794.253,510.518Z" transform="translate(-779.797 -494.146)" fill="#f5f8f7"/>
</svg>
