<svg xmlns="http://www.w3.org/2000/svg" width="43.491" height="43.491" viewBox="0 0 43.491 43.491">
    <path id="Path_277" data-name="Path 277" d="M21.746,0A21.853,21.853,0,0,1,40.212,10.258a21.4,21.4,0,0,1,3.279,11.488A21.746,21.746,0,1,1,21.746,0Z" fill="#44c0e5"/>
    <path id="Path_25" data-name="Path 25" d="M752.095,797.2h-1.276c-.181-.018-.362-.035-.541-.051a11.785,11.785,0,0,1-4.55-1.4c-.23-.125-.453-.262-.679-.393a8.948,8.948,0,0,0,3.253-.283,8.409,8.409,0,0,0,2.912-1.48,4.2,4.2,0,0,1-3.895-2.894c.207.019.416.049.623.056s.414-.012.62-.023a1.744,1.744,0,0,0,.6-.132,4.171,4.171,0,0,1-3.316-4.137,4.049,4.049,0,0,0,1.862.5,4.213,4.213,0,0,1-1.276-5.578,11.958,11.958,0,0,0,3.863,3.11,11.8,11.8,0,0,0,4.776,1.266c-.007-.039-.009-.065-.014-.093a4.048,4.048,0,0,1-.026-1.6,4.122,4.122,0,0,1,1.581-2.584,4.06,4.06,0,0,1,1.925-.814l.385-.051h.442c.032.005.062.014.091.018.125.012.249.018.372.039a4.177,4.177,0,0,1,2.331,1.216.11.11,0,0,0,.116.042,8.476,8.476,0,0,0,2-.683c.195-.1.384-.2.59-.309a4.26,4.26,0,0,1-1.808,2.294,8.3,8.3,0,0,0,2.357-.634c-.023.035-.033.053-.044.07a8.356,8.356,0,0,1-1.922,1.992.221.221,0,0,0-.1.209,11.242,11.242,0,0,1-.149,2.3,12.3,12.3,0,0,1-.974,3.159,11.882,11.882,0,0,1-3.695,4.607,11.068,11.068,0,0,1-3.131,1.638,11.86,11.86,0,0,1-2.954.586C752.324,797.178,752.21,797.19,752.095,797.2Z" transform="translate(-733.839 -767.137)" fill="#fff"/>
</svg>
